ntemp 109

files
../runs/NAME/T1/energy_cut.dat    1     1 
../runs/NAME/T1.05/energy_cut.dat    1.05     1 
../runs/NAME/T1.1/energy_cut.dat    1.1     1 
../runs/NAME/T1.2/energy_cut.dat    1.2     1 
../runs/NAME/T1.3/energy_cut.dat    1.3     1 
../runs/NAME/T1.4/energy_cut.dat    1.4     1 
../runs/NAME/T1.5/energy_cut.dat    1.5     1 
../runs/NAME/T1.7/energy_cut.dat    1.7     1 
../runs/NAME/T2/energy_cut.dat    2     1 
../runs/NAME/T2.2/energy_cut.dat    2.2     1 
../runs/NAME/T2.5/energy_cut.dat    2.5     1 
../runs/NAME/T2.7/energy_cut.dat    2.7     1 
../runs/NAME/T3/energy_cut.dat    3     1 
../runs/NAME/T3.2/energy_cut.dat    3.2     1 
../runs/NAME/T3.5/energy_cut.dat    3.5     1 
../runs/NAME/T3.7/energy_cut.dat    3.7     1 
../runs/NAME/T4/energy_cut.dat    4     1 
../runs/NAME/T4.2/energy_cut.dat    4.2     1 
../runs/NAME/T4.5/energy_cut.dat    4.5     1 
../runs/NAME/T4.7/energy_cut.dat    4.7     1 
../runs/NAME/T5/energy_cut.dat    5     1 
../runs/NAME/T5.2/energy_cut.dat    5.2     1 
../runs/NAME/T5.5/energy_cut.dat    5.5     1 
../runs/NAME/T5.7/energy_cut.dat    5.7     1 
../runs/NAME/T6/energy_cut.dat    6     1 
../runs/NAME/T6.2/energy_cut.dat    6.2     1 
../runs/NAME/T6.5/energy_cut.dat    6.5     1 
../runs/NAME/T6.7/energy_cut.dat    6.7     1 
../runs/NAME/T7/energy_cut.dat    7     1 
../runs/NAME/T7.2/energy_cut.dat    7.2     1 
../runs/NAME/T7.5/energy_cut.dat    7.5     1 
../runs/NAME/T7.7/energy_cut.dat    7.7     1 
../runs/NAME/T8/energy_cut.dat    8     1 
../runs/NAME/T8.2/energy_cut.dat    8.2     1 
../runs/NAME/T8.5/energy_cut.dat    8.5     1 
../runs/NAME/T8.7/energy_cut.dat    8.7     1 
../runs/NAME/T9/energy_cut.dat    9     1 
../runs/NAME/T9.2/energy_cut.dat    9.2     1 
../runs/NAME/T9.5/energy_cut.dat    9.5     1 
../runs/NAME/T9.7/energy_cut.dat    9.7     1 
../runs/NAME/T10/energy_cut.dat    10     1 
../runs/NAME/T10.2/energy_cut.dat    10.2     1 
../runs/NAME/T10.5/energy_cut.dat    10.5     1 
../runs/NAME/T10.7/energy_cut.dat    10.7     1 
../runs/NAME/T11/energy_cut.dat    11     1 
../runs/NAME/T12.5/energy_cut.dat    12.5     1 
../runs/NAME/T13/energy_cut.dat    13     1 
../runs/NAME/T14.5/energy_cut.dat    14.5     1 
../runs/NAME/T16/energy_cut.dat    16     1 
../runs/NAME/T17.5/energy_cut.dat    17.5     1 
../runs/NAME/T20/energy_cut.dat    20     1 
../runs/NAME/T21.5/energy_cut.dat    21.5     1 
../runs/NAME/T23/energy_cut.dat    23     1 
../runs/NAME/T24.5/energy_cut.dat    24.5     1 
../runs/NAME/T26/energy_cut.dat    26     1 
../runs/NAME/T27.5/energy_cut.dat    27.5     1 
../runs/NAME/T30/energy_cut.dat    30     1 
../runs/NAME/T31.5/energy_cut.dat    31.5     1 
../runs/NAME/T33/energy_cut.dat    33     1 
../runs/NAME/T34.5/energy_cut.dat    34.5     1 
../runs/NAME/T36/energy_cut.dat    36     1 
../runs/NAME/T37.5/energy_cut.dat    37.5     1 
../runs/NAME/T40/energy_cut.dat    40     1 
../runs/NAME/T45/energy_cut.dat    45     1 
../runs/NAME/T50/energy_cut.dat    50     1 
../runs/NAME/T55/energy_cut.dat    55     1 
../runs/NAME/T60/energy_cut.dat    60     1 
../runs/NAME/T65/energy_cut.dat    65     1 
../runs/NAME/T70/energy_cut.dat    70     1 
../runs/NAME/T75/energy_cut.dat    75     1 
../runs/NAME/T80/energy_cut.dat    80     1 
../runs/NAME/T85/energy_cut.dat    85     1 
../runs/NAME/T90/energy_cut.dat    90     1 
../runs/NAME/T95/energy_cut.dat    95     1 
../runs/NAME/T100/energy_cut.dat    100     1 
../runs/NAME/T105/energy_cut.dat    105     1 
../runs/NAME/T110/energy_cut.dat    110     1 
../runs/NAME/T115/energy_cut.dat    115     1 
../runs/NAME/T120/energy_cut.dat    120     1 
../runs/NAME/T130/energy_cut.dat    130     1 
../runs/NAME/T131/energy_cut.dat    131     1 
../runs/NAME/T132/energy_cut.dat    132     1 
../runs/NAME/T133/energy_cut.dat    133     1 
../runs/NAME/T134/energy_cut.dat    134     1 
../runs/NAME/T135/energy_cut.dat    135     1 
../runs/NAME/T136/energy_cut.dat    136     1 
../runs/NAME/T137/energy_cut.dat    137     1 
../runs/NAME/T138/energy_cut.dat    138     1 
../runs/NAME/T139/energy_cut.dat    139     1 
../runs/NAME/T132/energy_cut.dat    132     1 
../runs/NAME/T135/energy_cut.dat    135     1 
../runs/NAME/T138/energy_cut.dat    138     1 
../runs/NAME/T140/energy_cut.dat    140     1 
../runs/NAME/T150/energy_cut.dat    150     1 
../runs/NAME/T160/energy_cut.dat    160     1 
../runs/NAME/T170/energy_cut.dat    170     1 
../runs/NAME/T180/energy_cut.dat    180     1 
../runs/NAME/T190/energy_cut.dat    190     1 
../runs/NAME/T200/energy_cut.dat    200     1 
../runs/NAME/T210/energy_cut.dat    210     1 
../runs/NAME/T220/energy_cut.dat    220     1 
../runs/NAME/T230/energy_cut.dat    230     1 
../runs/NAME/T240/energy_cut.dat    240     1 
../runs/NAME/T250/energy_cut.dat    250     1 
../runs/NAME/T260/energy_cut.dat    260     1 
../runs/NAME/T270/energy_cut.dat    270     1 
../runs/NAME/T280/energy_cut.dat    280     1 
../runs/NAME/T290/energy_cut.dat    290     1 
../runs/NAME/T300/energy_cut.dat    300     1 

kb 1
tmin 1.0
tbin 0.1
ntbin 3000

nohisto

outfile results/NAME.dat
gfile results/g_NAME.dat

debug 1

